<svg width="700" height="238" xmlns="http://www.w3.org/2000/svg">
 <metadata id="metadata8">image/svg+xml</metadata>
 <defs>
  <clipPath clipPathUnits="userSpaceOnUse" id="clipPath18">
   <path d="m-196.875,1494.375l1920,0l0,-1080l-1920,0l0,1080z" id="path16"/>
  </clipPath>
  <clipPath clipPathUnits="userSpaceOnUse" id="clipPath30">
   <path d="m193.938,1069.42c3.209,-4.77 4.76,-10.361 4.76,-15.789l0,0c0,-16.44 -15.535,-35.081 -48.891,-58.666l0,0c-23.832,-16.852 -50.289,-31.549 -60.558,-37.086l0,0c-7.904,-4.263 -14.642,-6.85 -20.431,-7.841l0,0c2.442,-21.966 21.196,-39.198 43.787,-39.198l0,0l347.733,0c24.236,0 44.064,19.829 44.064,44.063l0,0l0,70.454c0,24.235 -19.828,44.063 -44.064,44.063l0,0l-266.4,0z" id="path28"/>
  </clipPath>
  <clipPath clipPathUnits="userSpaceOnUse" id="clipPath50">
   <path d="m-196.875,1494.375l1920,0l0,-1080l-1920,0l0,1080z" id="path48"/>
  </clipPath>
  <clipPath clipPathUnits="userSpaceOnUse" id="clipPath118">
   <path d="m950.756,1037.342c2.138,-4.511 3.229,-9.261 3.229,-14.123l0,0c0,-17.432 -14.267,-35.139 -46.264,-57.762l0,0c-12.032,-8.509 -24.791,-16.355 -35.269,-22.372l0,0l595.234,0c26.005,0 47.284,21.136 47.32,47.132l0,0c-0.036,25.996 -21.315,47.125 -47.32,47.125l0,0l-516.93,0z" id="path116"/>
  </clipPath>
  <clipPath clipPathUnits="userSpaceOnUse" id="clipPath138">
   <path d="m1226.12,990.217c0,-0.021 0,-0.043 0,-0.064l0,0l0,0.129c0,-0.021 0,-0.043 0,-0.065" id="path136"/>
  </clipPath>
  <clipPath clipPathUnits="userSpaceOnUse" id="clipPath158">
   <path d="m-196.875,1494.375l1920,0l0,-1080l-1920,0l0,1080z" id="path156"/>
  </clipPath>
  <linearGradient x1="0.000001" y1="0.500002" x2="1.000001" y2="0.500002" spreadMethod="pad" id="linearGradient40">
   <stop stop-color="#218564" offset="0" id="stop36"/>
   <stop stop-color="#c4cf36" offset="1" id="stop38"/>
  </linearGradient>
  <linearGradient x1="0.000001" y1="0.500005" x2="0.999999" y2="0.500005" spreadMethod="pad" id="linearGradient128">
   <stop stop-color="#218564" offset="0" id="stop124"/>
   <stop stop-color="#c4cf36" offset="1" id="stop126"/>
  </linearGradient>
  <linearGradient x1="Infinity" y1="0.498817" x2="Infinity" y2="0.498817" spreadMethod="pad" id="linearGradient148">
   <stop stop-color="#218564" offset="0" id="stop144"/>
   <stop stop-color="#c4cf36" offset="1" id="stop146"/>
  </linearGradient>
 </defs>
 <g>
  <title>background</title>
  <rect fill="none" id="canvas_background" height="240" width="702" y="-1" x="-1"/>
 </g>
 <g>
  <title>Layer 1</title>
  <g id="g10" transform="matrix(1.3333333,0,0,-1.3333333,0,1440) ">
   <g id="g12">
    <g id="g14" clip-path="url(#clipPath18)">
     <g id="g20">
      <path fill="#9fc867" fill-rule="nonzero" d="m167.465607,1069.465088c13.554,0 18.59,-8.15 18.59,-15.774c0,-27.379 -81.859,-73.359 -102.806,-84.654c-6.287,-3.389 -13.992,-6.808 -19.571,-6.808c-29.311,0 -52.435,51.491 -52.435,77.934c0,18.398 7.085,29.302 23.84,29.302l132.382,0z" id="path22"/>
     </g>
    </g>
   </g>
   <g id="g24">
    <g id="g26" clip-path="url(#clipPath30)">
     <g id="g32">
      <g id="g34">
       <path fill="url(#linearGradient40)" d="m193.938,1069.42c3.209,-4.77 4.76,-10.361 4.76,-15.789l0,0c0,-16.44 -15.535,-35.081 -48.891,-58.666l0,0c-23.832,-16.852 -50.289,-31.549 -60.558,-37.086l0,0c-7.904,-4.263 -14.642,-6.85 -20.431,-7.841l0,0c2.442,-21.966 21.196,-39.198 43.787,-39.198l0,0l347.733,0c24.236,0 44.064,19.829 44.064,44.063l0,0l0,70.454c0,24.235 -19.828,44.063 -44.064,44.063l0,0l-266.4,0z" id="path42"/>
      </g>
     </g>
    </g>
   </g>
   <g id="g44">
    <g id="g46" clip-path="url(#clipPath50)">
     <g id="g52">
      <path fill="#e7332c" fill-rule="nonzero" d="m59.751709,983.679016c-14.312,8.311 -37.275,28.265 -40.451,57.22c-1.366,12.468 2.565,22.433 15.782,22.433l132.383,0c10.952,0 12.587,-6.078 12.587,-9.707c0,-4.343 -3.998,-17.265 -41.012,-43.438c-13.477,-9.529 -32.952,-21.376 -49.474,-29.318c-8.184,-3.932 -16.307,-5.035 -29.815,2.81" id="path54"/>
     </g>
     <g id="g56">
      <path fill="#ffffff" fill-rule="nonzero" d="m56.383606,979.411377c-13.481,8.723 -36.639,28.199 -40.254,60.596c-0.606,5.431 -0.051,10.964 1.566,15.584c1.066,3.047 3,6.425 6.487,8.776c-6.901,-3.474 -10.185,-11.07 -10.185,-23.214c0,-24.379 22.492,-71.446 49.681,-71.446c2.184,0 5.425,0.881 9.367,2.387c-5.038,0.935 -10.532,3.352 -16.662,7.317" id="path58"/>
     </g>
     <g id="g60">
      <path fill="#ffffff" fill-rule="nonzero" d="m74.509491,1053.297119l-10.777,0l-6.432,-16.721l-0.039,16.721l-10.778,0l-11.297,-35.124l10.518,0l4.23,15.778l0.623,-15.778l6.476,0l6.655,15.778l-1.801,-15.778l10.517,0l2.105,35.124z" id="path62"/>
     </g>
     <g id="g64">
      <path fill="#ffffff" fill-rule="nonzero" d="m101.502686,1052.056885c-6.958,4.146 -16.936,0.233 -22.282,-8.74c-5.35,-8.972 -4.043,-19.608 2.913,-23.754c6.958,-4.15 16.931,-0.236 22.283,8.739c5.348,8.972 4.042,19.607 -2.914,23.755m-3.988,-16.266c-0.735,-3.838 -3.836,-6.953 -6.93,-6.953c-3.091,0 -5.004,3.115 -4.269,6.953c0.733,3.839 3.834,6.95 6.927,6.95c3.091,0 5.006,-3.111 4.272,-6.95" id="path66"/>
     </g>
     <g id="g68">
      <path fill="#ffffff" fill-rule="nonzero" d="m106.5867,1018.173096l11.898,0l8.213,10.593l-7.282,0l4.657,24.531l-10.788,0l-6.698,-35.124z" id="path70"/>
     </g>
     <g id="g72">
      <path fill="#ffffff" fill-rule="nonzero" d="m156.682404,948.605713l-0.919,8.223l-5.272,-8.223l6.191,0zm-3.096,21.525l11.223,0l5.127,-34.101l-12.044,0l-0.581,4.547l-11.851,0l-2.95,-4.547l-12.335,0l23.411,34.101z" id="path74"/>
     </g>
     <g id="g76">
      <path fill="#ffffff" fill-rule="nonzero" d="m179.852295,969.888916l11.319,0l-6.482,-24.186l15.431,0l-2.613,-9.673l-26.749,0l9.094,33.859z" id="path78"/>
     </g>
     <g id="g80">
      <path fill="#ffffff" fill-rule="nonzero" d="m224.063202,948.605713l-0.919,8.223l-5.272,-8.223l6.191,0zm-3.096,21.525l11.223,0l5.127,-34.101l-12.044,0l-0.581,4.547l-11.851,0l-2.95,-4.547l-12.335,0l23.411,34.101z" id="path82"/>
     </g>
     <g id="g84">
      <path fill="#ffffff" fill-rule="nonzero" d="m258.213593,960.843994l-2.128,0l-1.983,-7.546l2.031,0c2.322,0 4.063,0.531 5.176,1.645c0.773,0.773 1.112,1.741 1.112,2.853c0,0.726 -0.29,1.451 -0.822,1.984c-0.774,0.773 -2.128,1.064 -3.386,1.064m-10.98,9.045l11.367,0c6.24,0 10.061,-1.209 12.576,-3.725c1.79,-1.79 2.66,-4.16 2.66,-6.82c0,-3.772 -1.209,-6.965 -3.772,-9.529c-2.854,-2.854 -7.45,-4.595 -13.351,-4.595l-4.788,0l-2.467,-9.19l-11.319,0l9.094,33.859z" id="path86"/>
     </g>
     <g id="g88">
      <path fill="#ffffff" fill-rule="nonzero" d="m288.107208,979.901611l11.077,-2.516l-9.239,-5.562l-8.658,0l6.82,8.078zm-8.61,-10.013l11.319,0l-9.094,-33.859l-11.319,0l9.094,33.859z" id="path90"/>
     </g>
     <g id="g92">
      <path fill="#ffffff" fill-rule="nonzero" d="m300.683289,960.311829l-9.964,0l2.564,9.577l31.247,0l-2.564,-9.577l-9.964,0l-6.53,-24.282l-11.318,0l6.529,24.282z" id="path94"/>
     </g>
     <g id="g96">
      <path fill="#ffffff" fill-rule="nonzero" d="m324.144287,969.888916l12.431,0l1.451,-19.01l11.706,19.01l12.722,0l-22.88,-34.102l-10.835,0l-4.595,34.102z" id="path98"/>
     </g>
     <g id="g100">
      <path fill="#ffffff" fill-rule="nonzero" d="m379.770325,980.38501l11.077,-2.515l-9.238,-5.563l-8.658,0l6.819,8.078zm-12.478,-39.857l-0.919,8.222l-5.273,-8.222l6.192,0zm-3.096,21.525l18.042,0l5.127,-26.023l-12.044,0l-0.581,4.546l-11.851,0l-2.95,-4.546l-12.335,0l16.592,26.023z" id="path102"/>
     </g>
     <g id="g104">
      <path fill="#ffffff" fill-rule="nonzero" d="m397.281006,969.888916l10.594,0l7.69,-16.156l4.354,16.156l11.221,0l-9.093,-33.859l-10.061,0l-8.029,16.833l-4.547,-16.833l-11.223,0l9.094,33.859z" id="path106"/>
     </g>
     <g id="g108">
      <path fill="#ffffff" fill-rule="nonzero" d="m438.106201,948.94458l-6.626,20.944l11.898,0l2.758,-11.318l8.803,11.318l13.398,0l-19.251,-22.347l-3.095,-11.512l-11.319,0l3.434,12.915z" id="path110"/>
     </g>
    </g>
   </g>
   <g id="g112">
    <g id="g114" clip-path="url(#clipPath118)">
     <g id="g120">
      <g id="g122">
       <path fill="url(#linearGradient128)" d="m950.756,1037.342c2.138,-4.511 3.229,-9.261 3.229,-14.123l0,0c0,-17.432 -14.267,-35.139 -46.264,-57.762l0,0c-12.032,-8.509 -24.791,-16.355 -35.269,-22.372l0,0l595.234,0c26.005,0 47.284,21.136 47.32,47.132l0,0c-0.036,25.996 -21.315,47.125 -47.32,47.125l0,0l-516.93,0z" id="path130"/>
      </g>
     </g>
    </g>
   </g>
   <g id="g132">
    <g id="g134" clip-path="url(#clipPath138)">
     <g id="g140">
      <g id="g142">
       <path fill="url(#linearGradient148)" d="m1226.12,990.217c0,-0.021 0,-0.043 0,-0.064l0,0l0,0.129c0,-0.021 0,-0.043 0,-0.065" id="path150"/>
      </g>
     </g>
    </g>
   </g>
   <g id="g152">
    <g id="g154" clip-path="url(#clipPath158)">
     <g id="g160">
      <path fill="#9fc867" fill-rule="nonzero" d="m918.752686,1037.391785c11.914,0 16.341,-7.232 16.341,-13.935c0,-24.066 -71.955,-64.516 -90.368,-74.445c-5.527,-2.98 -12.3,-6.002 -17.204,-6.002c-25.765,0 -46.091,45.321 -46.091,68.567c0,16.17 6.228,25.815 20.955,25.815l116.367,0z" id="path162"/>
     </g>
     <g id="g164">
      <path fill="#e7332c" fill-rule="nonzero" d="m824.070129,961.8479c-12.581,7.306 -32.766,24.852 -35.558,50.303c-1.201,10.961 2.255,19.726 13.873,19.726l116.368,0c9.627,0 11.064,-5.349 11.064,-8.538c0,-3.819 -3.515,-15.18 -36.051,-38.186c-11.846,-8.376 -28.965,-18.793 -43.488,-25.774c-7.194,-3.456 -14.334,-4.427 -26.208,2.469" id="path166"/>
     </g>
     <g id="g168">
      <path fill="#ffffff" fill-rule="nonzero" d="m821.10907,958.096924c-11.851,7.667 -32.207,24.787 -35.385,53.265c-0.532,4.774 -0.044,9.637 1.376,13.699c0.939,2.678 2.638,5.647 5.703,7.714c-6.065,-3.054 -8.952,-9.731 -8.952,-20.406c0,-21.429 19.771,-62.802 43.67,-62.802c1.92,0 4.769,0.773 8.234,2.097c-4.428,0.823 -9.258,2.948 -14.646,6.433" id="path170"/>
     </g>
     <g id="g172">
      <path fill="#ffffff" fill-rule="nonzero" d="m837.042725,1022.851807l-9.475,0l-5.653,-14.697l-0.034,14.697l-9.475,0l-9.929,-30.583l9.246,0l3.717,13.869l0.548,-13.869l5.693,0l5.849,13.869l-1.583,-13.869l9.245,0l1.851,30.583z" id="path174"/>
     </g>
     <g id="g176">
      <path fill="#ffffff" fill-rule="nonzero" d="m860.769287,1021.954285c-6.115,3.644 -14.886,0.205 -19.586,-7.684c-4.703,-7.886 -3.554,-17.235 2.561,-20.879c6.116,-3.648 14.882,-0.208 19.587,7.681c4.701,7.887 3.553,17.235 -2.562,20.882m-3.506,-14.299c-0.645,-3.374 -3.371,-6.111 -6.091,-6.111c-2.716,0 -4.398,2.737 -3.752,6.111c0.644,3.375 3.37,6.109 6.089,6.109c2.717,0 4.4,-2.734 3.754,-6.109" id="path178"/>
     </g>
     <g id="g180">
      <path fill="#ffffff" fill-rule="nonzero" d="m865.239014,992.268799l10.459,0l7.22,9.526l-6.402,0l4.094,21.057l-9.483,0l-5.888,-30.583z" id="path182"/>
     </g>
     <g id="g184">
      <path fill="#ffffff" fill-rule="nonzero" d="m1087.369873,983.665283l-1.165,10.426l-6.685,-10.426l7.85,0zm-11.775,27.29l14.228,0l6.5,-43.234l-7.42,0l-0.736,5.764l-15.025,0l-3.741,-5.764l-15.637,0l21.831,43.234z" id="path186"/>
     </g>
     <g id="g188">
      <path fill="#ffffff" fill-rule="nonzero" d="m1116.740967,1010.648682l14.35,0l-8.217,-30.663l19.562,0l-3.311,-12.265l-33.913,0l11.529,42.928z" id="path190"/>
     </g>
     <g id="g192">
      <path fill="#ffffff" fill-rule="nonzero" d="m1172.788818,983.665283l-1.165,10.426l-6.685,-10.426l7.85,0zm-11.775,27.29l14.228,0l6.5,-43.234l-7.42,0l-0.736,5.764l-15.025,0l-3.741,-5.764l-15.637,0l21.831,43.234z" id="path194"/>
     </g>
     <g id="g196">
      <path fill="#ffffff" fill-rule="nonzero" d="m1216.080811,999.180908l-2.698,0l-2.515,-9.567l2.576,0c2.944,0 5.151,0.674 6.562,2.086c0.981,0.98 1.41,2.207 1.41,3.618c0,0.92 -0.368,1.839 -1.042,2.513c-0.981,0.982 -2.698,1.35 -4.293,1.35m-13.921,11.468l14.411,0c7.911,0 12.756,-1.533 15.945,-4.723c2.269,-2.268 3.373,-5.273 3.373,-8.646c0,-4.784 -1.534,-8.831 -4.784,-12.081c-3.618,-3.619 -9.444,-5.827 -16.925,-5.827l-6.072,0l-3.127,-11.651l-14.35,0l11.529,42.928z" id="path198"/>
     </g>
     <g id="g200">
      <path fill="#ffffff" fill-rule="nonzero" d="m1253.976318,1023.343018l14.044,-3.189l-11.713,-7.052l-10.977,0l8.646,10.241zm-19.561,-22.935l14.35,0l-11.53,-42.928l-14.349,0l11.529,42.928z" id="path202"/>
     </g>
     <g id="g204">
      <path fill="#ffffff" fill-rule="nonzero" d="m1269.918701,998.506104l-12.633,0l3.25,12.143l39.616,0l-3.25,-12.143l-12.632,0l-8.28,-30.785l-14.349,0l8.278,30.785z" id="path206"/>
     </g>
     <g id="g208">
      <path fill="#ffffff" fill-rule="nonzero" d="m1299.658936,1010.648682l15.761,0l1.84,-24.101l14.839,24.101l16.129,0l-29.007,-43.234l-13.736,0l-5.826,43.234z" id="path210"/>
     </g>
     <g id="g212">
      <path fill="#ffffff" fill-rule="nonzero" d="m1370.18042,1023.956299l14.044,-3.189l-11.714,-7.052l-10.976,0l8.646,10.241zm-15.821,-50.532l-1.165,10.426l-6.684,-10.426l7.849,0zm-3.925,27.29l22.874,0l6.5,-43.234l-15.27,0l-0.736,5.764l-15.024,0l-3.742,-5.764l-15.637,0l21.035,43.234z" id="path214"/>
     </g>
     <g id="g216">
      <path fill="#ffffff" fill-rule="nonzero" d="m1392.376709,1010.648682l13.43,0l9.751,-20.482l5.519,20.482l14.228,0l-11.53,-42.928l-12.755,0l-10.18,21.341l-5.765,-21.341l-14.227,0l11.529,42.928z" id="path218"/>
     </g>
     <g id="g220">
      <path fill="#ffffff" fill-rule="nonzero" d="m1444.130615,984.094971l-8.401,26.554l15.086,0l3.495,-14.351l11.161,14.351l16.987,0l-24.407,-28.332l-3.925,-14.596l-14.35,0l4.354,16.374z" id="path222"/>
     </g>
     <g id="g224">
      <path fill="#e7332c" fill-rule="nonzero" d="m450.563171,1051.961182c18.088,0 32.751,-14.663 32.751,-32.751c0,-18.088 -14.663,-32.751 -32.751,-32.751c-18.089,0 -32.752,14.663 -32.752,32.751c0,18.088 14.663,32.751 32.752,32.751" id="path226"/>
     </g>
     <g id="g228">
      <path fill="#ffffff" fill-rule="nonzero" d="m448.42749,993.184814c0.727,-0.062 1.433,-0.093 2.136,-0.093c0.292,0 0.596,0.007 0.918,0.021l0,22.056c0,4.029 3.277,7.306 7.305,7.306c4.029,0 7.306,-3.277 7.306,-7.306l0,-16.96c6.67,4.918 10.588,12.614 10.588,21.001c0,14.402 -11.716,26.119 -26.117,26.119c-14.402,0 -26.118,-11.717 -26.118,-26.119c0,-7.769 3.462,-15.093 9.371,-20.036l0,11.584c0,4.029 3.277,7.306 7.305,7.306c4.029,0 7.306,-3.277 7.306,-7.306l0,-17.573zm2.136,-2.563c-1.133,0 -2.318,0.075 -3.523,0.224l-1.084,0.133l0,19.779c0,2.666 -2.169,4.835 -4.835,4.835c-2.666,0 -4.835,-2.169 -4.835,-4.835l0,-16.427l-1.937,1.336c-7.749,5.346 -12.375,14.148 -12.375,23.543c0,15.764 12.825,28.589 28.589,28.589c15.763,0 28.588,-12.825 28.588,-28.589c0,-10.013 -5.102,-19.126 -13.648,-24.375l-1.882,-1.155l0,21.489c0,2.666 -2.169,4.835 -4.835,4.835c-2.666,0 -4.835,-2.169 -4.835,-4.835l0,-24.362l-1.139,-0.089c-0.829,-0.064 -1.565,-0.096 -2.249,-0.096" id="path230"/>
     </g>
     <g id="g232">
      <path fill="#ffffff" fill-rule="nonzero" d="m446.849426,1026.974915c0,-3.017 -2.446,-5.463 -5.463,-5.463c-3.017,0 -5.463,2.446 -5.463,5.463c0,3.018 2.446,5.463 5.463,5.463c3.017,0 5.463,-2.445 5.463,-5.463" id="path234"/>
     </g>
     <g id="g236">
      <path fill="#ffffff" fill-rule="nonzero" d="m463.966614,1032.437683c0,-3.017 -2.445,-5.463 -5.463,-5.463c-3.016,0 -5.462,2.446 -5.462,5.463c0,3.017 2.446,5.463 5.462,5.463c3.018,0 5.463,-2.446 5.463,-5.463" id="path238"/>
     </g>
     <g id="g240">
      <path fill="#e7332c" fill-rule="nonzero" d="m1003.229248,1025.295227c18.088,0 32.751,-14.663 32.751,-32.752c0,-18.088 -14.663,-32.751 -32.751,-32.751c-18.088,0 -32.751,14.663 -32.751,32.751c0,18.089 14.663,32.752 32.751,32.752" id="path242"/>
     </g>
     <g id="g244">
      <path fill="#ffffff" fill-rule="nonzero" d="m1001.093506,966.517822c0.728,-0.062 1.434,-0.092 2.136,-0.092c0.293,0 0.597,0.006 0.918,0.02l0,22.057c0,4.029 3.277,7.306 7.305,7.306c4.03,0 7.306,-3.277 7.306,-7.306l0,-16.961c6.671,4.918 10.589,12.614 10.589,21.001c0,14.403 -11.717,26.119 -26.118,26.119c-14.402,0 -26.117,-11.716 -26.117,-26.119c0,-7.769 3.462,-15.093 9.37,-20.036l0,11.584c0,4.029 3.277,7.306 7.305,7.306c4.029,0 7.306,-3.277 7.306,-7.306l0,-17.573zm2.136,-2.563c-1.132,0 -2.317,0.076 -3.522,0.224l-1.085,0.134l0,19.778c0,2.666 -2.169,4.835 -4.835,4.835c-2.666,0 -4.835,-2.169 -4.835,-4.835l0,-16.427l-1.936,1.336c-7.749,5.347 -12.375,14.148 -12.375,23.543c0,15.764 12.824,28.589 28.588,28.589c15.763,0 28.589,-12.825 28.589,-28.589c0,-10.013 -5.103,-19.125 -13.648,-24.374l-1.882,-1.156l0,21.49c0,2.666 -2.17,4.835 -4.836,4.835c-2.666,0 -4.835,-2.169 -4.835,-4.835l0,-24.363l-1.138,-0.089c-0.829,-0.064 -1.566,-0.096 -2.25,-0.096" id="path246"/>
     </g>
     <g id="g248">
      <path fill="#ffffff" fill-rule="nonzero" d="m999.515381,1000.308777c0,-3.018 -2.445,-5.463 -5.463,-5.463c-3.016,0 -5.462,2.445 -5.462,5.463c0,3.017 2.446,5.462 5.462,5.462c3.018,0 5.463,-2.445 5.463,-5.462" id="path250"/>
     </g>
     <g id="g252">
      <path fill="#ffffff" fill-rule="nonzero" d="m1016.633545,1005.770813c0,-3.017 -2.446,-5.462 -5.463,-5.462c-3.016,0 -5.463,2.445 -5.463,5.462c0,3.018 2.447,5.463 5.463,5.463c3.017,0 5.463,-2.445 5.463,-5.463" id="path254"/>
     </g>
    </g>
   </g>
  </g>
 </g>
</svg>